<svg width="28" height="28" viewBox="0 0 28 28" fill="none" xmlns="http://www.w3.org/2000/svg">
<path d="M25.1934 22.7577C24.9249 22.2912 24.4639 21.9383 23.8927 21.8284C17.1052 20.5221 10.2422 20.5221 3.45471 21.8284C3.2178 21.8744 2.99948 21.9617 2.80658 22.0822C3.38272 16.4225 8.16339 12.0059 13.9759 12.0059C20.0169 12.0059 24.9441 16.7778 25.1934 22.7577Z" fill="url(#paint0_linear)"/>
<path d="M14.3397 12.0123L14.1444 20.8516C17.3054 20.8793 20.4655 21.1876 23.6098 21.7757H24.1732L14.4123 12.015C14.3882 12.0142 14.364 12.0131 14.3397 12.0123Z" fill="url(#paint1_linear)"/>
<path d="M14.5022 13.5657C14.1989 11.5049 14.3666 9.40222 14.9925 7.41553H13.0075C13.6334 9.40222 13.8011 11.5049 13.4978 13.5657L12.5525 19.9872H15.4473L14.5022 13.5657Z" fill="url(#paint2_linear)"/>
<path d="M14.9925 7.41553H13.0075C13.2092 8.05533 13.3626 8.70731 13.4685 9.36612L13.4728 9.36954L14.4134 10.3101C14.5025 9.33044 14.6949 8.35974 14.9925 7.41553Z" fill="url(#paint3_linear)"/>
<path d="M15.2794 3.94177C15.2794 4.64844 14.7066 5.22116 14 5.22116C13.2933 5.22116 12.7206 4.64844 12.7206 3.94177C12.7206 3.23511 13.2933 1.75 14 1.75C14.7066 1.75 15.2794 3.23511 15.2794 3.94177Z" fill="url(#paint4_linear)"/>
<path d="M15.6129 6.05084C15.6129 6.94165 14.8908 7.66369 14 7.66369C13.1092 7.66369 12.3871 6.94165 12.3871 6.05084C12.3871 5.16003 13.1092 4.43799 14 4.43799C14.8908 4.43799 15.6129 5.16003 15.6129 6.05084Z" fill="url(#paint5_linear)"/>
<path d="M6.31766 15.0239C6.31467 15.0265 6.31168 15.0292 6.3089 15.0318L6.58725 21.2794H6.89786C8.65106 21.0566 10.4075 20.9203 12.1647 20.8708L6.31766 15.0239Z" fill="url(#paint6_linear)"/>
<path d="M3.54422 19.0738C3.16653 20.0199 2.9136 21.0295 2.80658 22.082C2.99948 21.9617 3.2178 21.8744 3.45471 21.8284C4.26477 21.6725 5.07568 21.5358 5.88766 21.417L3.54422 19.0738Z" fill="url(#paint7_linear)"/>
<path d="M22.2623 15.6586L20.0115 21.2249C21.3072 21.379 22.6013 21.5798 23.8926 21.8284C24.4639 21.9382 24.9249 22.2911 25.1934 22.7577C25.0795 20.0257 23.989 17.5464 22.2623 15.6586Z" fill="url(#paint8_linear)"/>
<path d="M14.4775 8.29501C14.3244 8.47253 14.1648 8.64258 14.0005 8.80621L13.9651 8.84167C13.5111 9.28772 13.0161 9.68143 12.4906 10.0209C12.49 10.0213 12.4893 10.0213 12.4887 10.0222C10.6353 11.2155 8.39782 11.7254 6.19024 11.4295C5.72433 11.3676 5.26034 11.2689 4.80127 11.1336C4.725 11.1112 4.64938 11.0922 4.5729 11.0772C3.69833 10.8991 2.83124 11.1815 2.21643 11.855C1.54907 12.5871 1.36856 13.5739 1.73385 14.4946L4.20697 20.723C3.86517 20.7826 3.52337 20.8452 3.18222 20.9109C3.00363 20.9449 2.83487 21.0022 2.67914 21.0778L0.292966 15.0671C-0.288302 13.6038 0.0101294 11.9723 1.07141 10.8098C2.13205 9.64682 3.72952 9.20078 5.23984 9.64618C5.38574 9.6889 5.53271 9.728 5.67969 9.76154C7.77383 10.2473 9.96048 9.83289 11.7197 8.67099C12.3009 8.28775 12.8363 7.82184 13.3052 7.2803L13.8914 7.78766L13.9888 7.87204L14.0005 7.88208L14.4775 8.29501Z" fill="url(#paint9_linear)"/>
<path d="M14.5266 8.23135C14.3754 8.44775 14.2115 8.65176 14.0355 8.84167C14.0235 8.85471 14.0118 8.8671 14 8.87949C13.5589 9.34775 13.0473 9.73184 12.4901 10.0209C12.4895 10.0215 12.4889 10.0215 12.4882 10.0222C11.3438 10.6152 10.0057 10.8111 8.68701 10.5259C7.76907 10.3272 6.85903 10.6361 6.2517 11.3526C6.22991 11.378 6.20962 11.4034 6.18975 11.4295C5.63454 12.1362 5.50167 13.0492 5.8362 13.8909L8.32491 20.1586C7.79256 20.212 7.26043 20.2733 6.72872 20.3421L4.39446 14.463C3.94414 13.3284 4.01742 12.1131 4.57262 11.0772C4.70913 10.8228 4.87469 10.5791 5.06887 10.3503C5.25558 10.13 5.46023 9.93329 5.67919 9.76154C6.61272 9.02902 7.81008 8.74918 9.0147 9.0098C9.95059 9.21188 10.9004 9.08051 11.7192 8.67099C12.3209 8.37149 12.8518 7.9216 13.2551 7.34418L13.8909 7.78766L14 7.86392L14.012 7.87204L14.5266 8.23135Z" fill="url(#paint10_linear)"/>
<path d="M27.7075 15.0671L25.3214 21.0778C25.1656 21.0022 24.9969 20.9451 24.8183 20.9109C24.4771 20.8454 24.1351 20.7826 23.7935 20.7232L26.2666 14.4946C26.6319 13.5741 26.4514 12.5871 25.7841 11.8553C25.1693 11.1815 24.3022 10.8993 23.4274 11.0772C23.3511 11.0922 23.2755 11.1114 23.1992 11.1339C22.7402 11.2691 22.2762 11.3676 21.8102 11.4297C19.6027 11.7256 17.3652 11.2157 15.5118 10.0222C15.5111 10.0215 15.5105 10.0215 15.5099 10.0209C14.9843 9.68164 14.4894 9.28772 14.0354 8.84167L14 8.80621C13.8357 8.64258 13.6761 8.47253 13.5229 8.29501L14 7.88208L14.0117 7.87204L14.1091 7.78766L14.6953 7.2803C15.1644 7.82184 15.6996 8.28775 16.2808 8.67099C18.0394 9.83289 20.226 10.2473 22.3208 9.76154C22.4678 9.728 22.6148 9.6889 22.7607 9.64618C24.2712 9.20078 25.8678 9.64682 26.9291 10.8098C27.9904 11.9723 28.2888 13.6038 27.7075 15.0671Z" fill="url(#paint11_linear)"/>
<path d="M22.3432 9.75598C22.3358 9.75769 22.3283 9.75983 22.3208 9.76154C20.226 10.2473 18.0394 9.83289 16.2808 8.67099C15.6996 8.28775 15.1644 7.82184 14.6953 7.2803L14.1091 7.78766L14.0117 7.87204L14 7.88208L13.5229 8.29523C13.6761 8.47253 13.8355 8.64258 14 8.80621L14.0354 8.84167C14.4894 9.28772 14.9843 9.68164 15.5099 10.0209C15.5105 10.0215 15.5111 10.0215 15.5118 10.0222C17.3652 11.2157 19.6027 11.7256 21.8103 11.4295C21.9884 11.4058 22.1659 11.375 22.3432 11.3409V9.75598Z" fill="url(#paint12_linear)"/>
<path d="M23.6055 14.463L21.2713 20.3423C20.7396 20.2733 20.2074 20.212 19.6753 20.1586L22.1638 13.8911C22.4981 13.0492 22.3654 12.1362 21.8102 11.4297C21.7904 11.4037 21.7699 11.3782 21.7483 11.3528C21.141 10.6363 20.2309 10.3274 19.313 10.5259C17.9941 10.8111 16.6562 10.6152 15.5116 10.0222C15.5111 10.0215 15.5103 10.0215 15.5099 10.0209C14.9527 9.73184 14.4411 9.34796 14 8.87949C13.988 8.8671 13.9763 8.85471 13.9645 8.84167C13.7885 8.65198 13.6246 8.44775 13.4734 8.23135L13.9882 7.87225L14 7.86414L14.1091 7.78787L14.7449 7.34418C15.1482 7.92181 15.679 8.37149 16.2808 8.67099C17.0996 9.08051 18.0494 9.21188 18.9853 9.0098C20.1899 8.74918 21.3873 9.02902 22.3208 9.76154C22.5398 9.9335 22.7444 10.13 22.9311 10.3503C23.1253 10.5791 23.2909 10.8228 23.4274 11.0772C23.9826 12.1131 24.0558 13.3284 23.6055 14.463Z" fill="url(#paint13_linear)"/>
<path d="M14 7.86392L13.8908 7.78766L13.2549 7.34418C12.956 7.77249 12.5867 8.12988 12.1705 8.40845L13.2833 9.52121C13.5379 9.32959 13.7778 9.11533 14 8.87949C14.0118 8.8671 14.0235 8.85471 14.0353 8.84167C14.2115 8.65176 14.3751 8.44775 14.5266 8.23114L14.0118 7.87204L14 7.86392Z" fill="url(#paint14_linear)"/>
<path d="M18.2182 9.10101C17.5401 9.11853 16.876 8.96857 16.2808 8.67099C15.6791 8.37149 15.1482 7.9216 14.7451 7.34418L14.1091 7.78766L14 7.86392L13.9882 7.87204L13.4734 8.23135C13.6246 8.44775 13.7885 8.65176 13.9645 8.84167C13.9765 8.85471 13.9882 8.8671 14 8.87949C14.4411 9.34775 14.9527 9.73184 15.5099 10.0209C15.5105 10.0215 15.5111 10.0215 15.5118 10.0222C16.3394 10.4511 17.2684 10.6709 18.2182 10.6526V9.10101Z" fill="url(#paint15_linear)"/>
<path d="M16.1333 7.78766C16.1333 7.17114 15.1781 6.67126 14 6.67126C12.8219 6.67126 11.8668 7.17114 11.8668 7.78766C11.8668 8.40439 12.8219 8.90427 14 8.90427C15.1781 8.90427 16.1333 8.40439 16.1333 7.78766Z" fill="url(#paint16_linear)"/>
<path d="M23.1526 15.6037H21.4838L19.6753 20.1585C20.2074 20.2119 20.7396 20.2733 21.2713 20.342L23.1526 15.6037Z" fill="url(#paint17_linear)"/>
<path d="M6.72867 20.3423C7.26038 20.2733 7.79251 20.2119 8.32486 20.1585L6.51611 15.6037H4.84729L6.72867 20.3423Z" fill="url(#paint18_linear)"/>
<path d="M25.8262 15.6037L23.7933 20.7229C24.1351 20.7825 24.4769 20.8453 24.8181 20.9109C24.9969 20.9451 25.1654 21.0021 25.3212 21.0778L27.4946 15.6037H25.8262Z" fill="url(#paint19_linear)"/>
<path d="M2.67862 21.0778C2.83435 21.0021 3.00311 20.9451 3.1817 20.9109C3.52286 20.8453 3.86487 20.7825 4.20645 20.7231L2.17383 15.6037H0.505432L2.67862 21.0778Z" fill="url(#paint20_linear)"/>
<path d="M12.5527 19.9872H15.4473L14.8995 16.2653H13.1004L12.5527 19.9872Z" fill="url(#paint21_linear)"/>
<path d="M3.18213 20.4559C10.3673 19.0731 17.6329 19.0731 24.8179 20.4559C25.9588 20.6755 26.6824 21.8084 26.4111 22.9382C26.2716 23.5193 26.1321 24.1003 25.9926 24.6814C25.7371 25.7456 24.6893 26.4145 23.6139 26.2096C17.2238 24.9916 10.7762 24.9916 4.3859 26.2096C3.31073 26.4145 2.2627 25.7456 2.00721 24.6814C1.86771 24.1003 1.72821 23.5193 1.58872 22.9382C1.31763 21.8084 2.04096 20.6755 3.18213 20.4559Z" fill="url(#paint22_linear)"/>
<path d="M4.38589 26.2096C10.7764 24.9916 17.224 24.9916 23.6141 26.2096C24.6893 26.4145 25.7371 25.7456 25.9926 24.6814C26.0928 24.2646 26.1927 23.848 26.2927 23.4315C26.0323 22.8436 25.4998 22.3862 24.8179 22.2548C17.6329 20.872 10.3673 20.872 3.18213 22.2548C2.50024 22.386 1.96768 22.8436 1.70728 23.4315C1.80725 23.848 1.90723 24.2646 2.0072 24.6812C2.26291 25.7456 3.31073 26.4145 4.38589 26.2096Z" fill="url(#paint23_radial)"/>
<path d="M20.5194 25.7153C18.3665 25.438 16.2095 25.2983 14.0521 25.296L12.5826 23.8264C12.1769 23.4362 11.9232 22.8904 11.9232 22.2837C11.9232 21.1008 12.8817 20.1436 14.0639 20.1436C14.6699 20.1436 15.2164 20.3974 15.606 20.8024C15.606 20.8024 18.9823 24.1781 20.5194 25.7153Z" fill="url(#paint24_linear)"/>
<path d="M16.2035 22.2832C16.2035 23.465 15.2454 24.4231 14.0636 24.4231C12.8819 24.4231 11.9238 23.465 11.9238 22.2832C11.9238 21.1013 12.8819 20.1434 14.0636 20.1434C15.2454 20.1434 16.2035 21.1013 16.2035 22.2832Z" fill="url(#paint25_linear)"/>
<path d="M16.2035 22.2832C16.2035 22.2288 16.1993 22.1756 16.1954 22.1222L15.2339 21.1609C14.9387 20.853 14.524 20.6603 14.0637 20.6603C13.1675 20.6603 12.441 21.3869 12.441 22.283C12.441 22.7434 12.6335 23.158 12.9413 23.4535L13.9028 24.4148C13.956 24.4188 14.0094 24.4229 14.0637 24.4229C15.2454 24.4231 16.2035 23.465 16.2035 22.2832Z" fill="url(#paint26_linear)"/>
<path d="M15.6864 22.2832C15.6864 23.1794 14.9598 23.9059 14.0637 23.9059C13.1675 23.9059 12.441 23.1794 12.441 22.2832C12.441 21.3869 13.1675 20.6603 14.0637 20.6603C14.9598 20.6603 15.6864 21.3869 15.6864 22.2832Z" fill="url(#paint27_linear)"/>
<path d="M15.2459 21.8953C15.2459 21.3298 14.7165 20.8714 14.0637 20.8714C13.4106 20.8714 12.8815 21.3298 12.8815 21.8953C12.8815 22.4608 13.4106 22.9192 14.0637 22.9192C14.7165 22.9192 15.2459 22.4608 15.2459 21.8953Z" fill="url(#paint28_linear)"/>
<defs>
<linearGradient id="paint0_linear" x1="14" y1="13.3127" x2="14" y2="22.1044" gradientUnits="userSpaceOnUse">
<stop stop-color="#FF4B3E"/>
<stop offset="0.0286" stop-color="#FB4A3C"/>
<stop offset="0.3327" stop-color="#D03E25"/>
<stop offset="0.6067" stop-color="#B13515"/>
<stop offset="0.8384" stop-color="#9E300B"/>
<stop offset="1" stop-color="#972E07"/>
</linearGradient>
<linearGradient id="paint1_linear" x1="18.5732" y1="20.728" x2="10.0048" y2="12.1596" gradientUnits="userSpaceOnUse">
<stop stop-color="#972E07" stop-opacity="0"/>
<stop offset="1" stop-color="#582707"/>
</linearGradient>
<linearGradient id="paint2_linear" x1="13.2763" y1="13.7014" x2="15.1826" y2="13.7014" gradientUnits="userSpaceOnUse">
<stop stop-color="#FFE548"/>
<stop offset="1" stop-color="#FFB211"/>
</linearGradient>
<linearGradient id="paint3_linear" x1="15.8065" y1="9.96675" x2="13.7203" y2="7.88059" gradientUnits="userSpaceOnUse">
<stop stop-color="#FFB211" stop-opacity="0"/>
<stop offset="0.1624" stop-color="#FFAA14" stop-opacity="0.160784"/>
<stop offset="0.4095" stop-color="#FF951E" stop-opacity="0.407843"/>
<stop offset="0.7088" stop-color="#FF732D" stop-opacity="0.709804"/>
<stop offset="1" stop-color="#FF4B3E"/>
</linearGradient>
<linearGradient id="paint4_linear" x1="14" y1="5.22118" x2="14" y2="1.75003" gradientUnits="userSpaceOnUse">
<stop stop-color="#FFB211"/>
<stop offset="1" stop-color="#FFE548"/>
</linearGradient>
<linearGradient id="paint5_linear" x1="14" y1="7.66361" x2="14" y2="4.43801" gradientUnits="userSpaceOnUse">
<stop stop-color="#FFB211"/>
<stop offset="1" stop-color="#FFE548"/>
</linearGradient>
<linearGradient id="paint6_linear" x1="8.6846" y1="20.3838" x2="3.57133" y2="15.2705" gradientUnits="userSpaceOnUse">
<stop stop-color="#972E07" stop-opacity="0"/>
<stop offset="1" stop-color="#582707"/>
</linearGradient>
<linearGradient id="paint7_linear" x1="6.17806" y1="23.5806" x2="1.98914" y2="19.3917" gradientUnits="userSpaceOnUse">
<stop stop-color="#972E07" stop-opacity="0"/>
<stop offset="1" stop-color="#582707"/>
</linearGradient>
<linearGradient id="paint8_linear" x1="23.0213" y1="19.4634" x2="20.447" y2="18.0677" gradientUnits="userSpaceOnUse">
<stop stop-color="#972E07" stop-opacity="0"/>
<stop offset="0.1333" stop-color="#8A2D07" stop-opacity="0.133333"/>
<stop offset="0.4738" stop-color="#6F2A07" stop-opacity="0.47451"/>
<stop offset="0.774" stop-color="#5E2807" stop-opacity="0.772549"/>
<stop offset="1" stop-color="#582707"/>
</linearGradient>
<linearGradient id="paint9_linear" x1="0.000517577" y1="14.1791" x2="14.4775" y2="14.1791" gradientUnits="userSpaceOnUse">
<stop stop-color="#FFE548"/>
<stop offset="1" stop-color="#FFB211"/>
</linearGradient>
<linearGradient id="paint10_linear" x1="4.1006" y1="13.8432" x2="14.5267" y2="13.8432" gradientUnits="userSpaceOnUse">
<stop stop-color="#FFE548"/>
<stop offset="1" stop-color="#FFB211"/>
</linearGradient>
<linearGradient id="paint11_linear" x1="21.8556" y1="16.5909" x2="20.3255" y2="8.40283" gradientUnits="userSpaceOnUse">
<stop stop-color="#FFE548"/>
<stop offset="1" stop-color="#FFB211"/>
</linearGradient>
<linearGradient id="paint12_linear" x1="22.6897" y1="13.7993" x2="16.4986" y2="7.60825" gradientUnits="userSpaceOnUse">
<stop stop-color="#FFB211" stop-opacity="0"/>
<stop offset="0.1624" stop-color="#FFAA14" stop-opacity="0.160784"/>
<stop offset="0.4095" stop-color="#FF951E" stop-opacity="0.407843"/>
<stop offset="0.7088" stop-color="#FF732D" stop-opacity="0.709804"/>
<stop offset="1" stop-color="#FF4B3E"/>
</linearGradient>
<linearGradient id="paint13_linear" x1="19.4825" y1="15.6279" x2="18.2832" y2="7.81198" gradientUnits="userSpaceOnUse">
<stop stop-color="#FFE548"/>
<stop offset="1" stop-color="#FFB211"/>
</linearGradient>
<linearGradient id="paint14_linear" x1="15.5173" y1="10.4886" x2="12.4262" y2="7.39749" gradientUnits="userSpaceOnUse">
<stop stop-color="#FFB211" stop-opacity="0"/>
<stop offset="0.1624" stop-color="#FFAA14" stop-opacity="0.160784"/>
<stop offset="0.4095" stop-color="#FF951E" stop-opacity="0.407843"/>
<stop offset="0.7088" stop-color="#FF732D" stop-opacity="0.709804"/>
<stop offset="1" stop-color="#FF4B3E"/>
</linearGradient>
<linearGradient id="paint15_linear" x1="17.9261" y1="10.8091" x2="13.8263" y2="6.70929" gradientUnits="userSpaceOnUse">
<stop stop-color="#FFB211" stop-opacity="0"/>
<stop offset="0.1624" stop-color="#FFAA14" stop-opacity="0.160784"/>
<stop offset="0.4095" stop-color="#FF951E" stop-opacity="0.407843"/>
<stop offset="0.7088" stop-color="#FF732D" stop-opacity="0.709804"/>
<stop offset="1" stop-color="#FF4B3E"/>
</linearGradient>
<linearGradient id="paint16_linear" x1="14" y1="8.9043" x2="14" y2="6.67118" gradientUnits="userSpaceOnUse">
<stop stop-color="#FFB211"/>
<stop offset="1" stop-color="#FFE548"/>
</linearGradient>
<linearGradient id="paint17_linear" x1="21.4139" y1="14.942" x2="21.4139" y2="20.8982" gradientUnits="userSpaceOnUse">
<stop stop-color="#FFB211" stop-opacity="0"/>
<stop offset="0.1624" stop-color="#FFAA14" stop-opacity="0.160784"/>
<stop offset="0.4095" stop-color="#FF951E" stop-opacity="0.407843"/>
<stop offset="0.7088" stop-color="#FF732D" stop-opacity="0.709804"/>
<stop offset="1" stop-color="#FF4B3E"/>
</linearGradient>
<linearGradient id="paint18_linear" x1="6.58607" y1="14.942" x2="6.58607" y2="20.8982" gradientUnits="userSpaceOnUse">
<stop stop-color="#FFB211" stop-opacity="0"/>
<stop offset="0.1624" stop-color="#FFAA14" stop-opacity="0.160784"/>
<stop offset="0.4095" stop-color="#FF951E" stop-opacity="0.407843"/>
<stop offset="0.7088" stop-color="#FF732D" stop-opacity="0.709804"/>
<stop offset="1" stop-color="#FF4B3E"/>
</linearGradient>
<linearGradient id="paint19_linear" x1="25.644" y1="14.9419" x2="25.644" y2="20.8982" gradientUnits="userSpaceOnUse">
<stop stop-color="#FFB211" stop-opacity="0"/>
<stop offset="0.1624" stop-color="#FFAA14" stop-opacity="0.160784"/>
<stop offset="0.4095" stop-color="#FF951E" stop-opacity="0.407843"/>
<stop offset="0.7088" stop-color="#FF732D" stop-opacity="0.709804"/>
<stop offset="1" stop-color="#FF4B3E"/>
</linearGradient>
<linearGradient id="paint20_linear" x1="2.35599" y1="14.9419" x2="2.35599" y2="20.8982" gradientUnits="userSpaceOnUse">
<stop stop-color="#FFB211" stop-opacity="0"/>
<stop offset="0.1624" stop-color="#FFAA14" stop-opacity="0.160784"/>
<stop offset="0.4095" stop-color="#FF951E" stop-opacity="0.407843"/>
<stop offset="0.7088" stop-color="#FF732D" stop-opacity="0.709804"/>
<stop offset="1" stop-color="#FF4B3E"/>
</linearGradient>
<linearGradient id="paint21_linear" x1="14" y1="16.7615" x2="14" y2="20.6076" gradientUnits="userSpaceOnUse">
<stop stop-color="#FFB211" stop-opacity="0"/>
<stop offset="0.1624" stop-color="#FFAA14" stop-opacity="0.160784"/>
<stop offset="0.4095" stop-color="#FF951E" stop-opacity="0.407843"/>
<stop offset="0.7088" stop-color="#FF732D" stop-opacity="0.709804"/>
<stop offset="1" stop-color="#FF4B3E"/>
</linearGradient>
<linearGradient id="paint22_linear" x1="14" y1="28.4892" x2="14" y2="19.49" gradientUnits="userSpaceOnUse">
<stop stop-color="#FFB211"/>
<stop offset="1" stop-color="#FFE548"/>
</linearGradient>
<radialGradient id="paint23_radial" cx="0" cy="0" r="1" gradientUnits="userSpaceOnUse" gradientTransform="translate(13.8139 29.5014) scale(18.4269 5.99612)">
<stop stop-color="#FF4B3E"/>
<stop offset="0.3161" stop-color="#FF4D3D" stop-opacity="0.682353"/>
<stop offset="0.4968" stop-color="#FF5639" stop-opacity="0.501961"/>
<stop offset="0.6435" stop-color="#FF6433" stop-opacity="0.356863"/>
<stop offset="0.7718" stop-color="#FF772B" stop-opacity="0.227451"/>
<stop offset="0.887" stop-color="#FF9120" stop-opacity="0.113725"/>
<stop offset="0.9934" stop-color="#FFB012" stop-opacity="0.01"/>
<stop offset="1" stop-color="#FFB211" stop-opacity="0"/>
</radialGradient>
<linearGradient id="paint24_linear" x1="17.8753" y1="26.0954" x2="12.9023" y2="21.1224" gradientUnits="userSpaceOnUse">
<stop stop-color="#FFB211" stop-opacity="0"/>
<stop offset="0.1624" stop-color="#FFAA14" stop-opacity="0.160784"/>
<stop offset="0.4095" stop-color="#FF951E" stop-opacity="0.407843"/>
<stop offset="0.7088" stop-color="#FF732D" stop-opacity="0.709804"/>
<stop offset="1" stop-color="#FF4B3E"/>
</linearGradient>
<linearGradient id="paint25_linear" x1="12.4009" y1="20.6205" x2="16.5691" y2="24.7886" gradientUnits="userSpaceOnUse">
<stop stop-color="#FEFFB3"/>
<stop offset="0.3541" stop-color="#FEF0A1"/>
<stop offset="1" stop-color="#FFCC77"/>
</linearGradient>
<linearGradient id="paint26_linear" x1="16.7601" y1="24.9796" x2="13.8518" y2="22.0713" gradientUnits="userSpaceOnUse">
<stop stop-color="#FFE7A5" stop-opacity="0"/>
<stop offset="1" stop-color="#FFBF5C"/>
</linearGradient>
<linearGradient id="paint27_linear" x1="13.3354" y1="20.9911" x2="14.6173" y2="23.2656" gradientUnits="userSpaceOnUse">
<stop stop-color="#A3FFFF"/>
<stop offset="1" stop-color="#1CCBF7"/>
</linearGradient>
<linearGradient id="paint28_linear" x1="14.0637" y1="22.4959" x2="14.0637" y2="19.6925" gradientUnits="userSpaceOnUse">
<stop offset="0.0013" stop-color="#E7EEED" stop-opacity="0"/>
<stop offset="0.4293" stop-color="#EEF3F2" stop-opacity="0.427451"/>
<stop offset="1" stop-color="white"/>
</linearGradient>
</defs>
</svg>
